{
    "success": true,
    "message": "تم جلب المعاملات بنجاح",
    "data": {
        "transactions": [
            {
                "id": 14,
                "receiptImageUrl": "/uploads/images/financial/1760869247810-207599485.jpg",
                "amountPaid": {
                    "s": 1,
                    "e": 1,
                    "d": [
                        50
                    ]
                },
                "notes": null,
                "accessCodeId": 14,
                "couponId": null,
                "createdAt": "2025-10-19",
                "updatedAt": "2025-10-19",
                "accessCode": {
                    "id": 14,
                    "code": "ZTLAVHQ7B8",
                    "courseLevel": {
                        "id": 17,
                        "name": "المستوى 2",
                        "course": {
                            "id": 5,
                            "title": "التعلم عن بعد",
                            "specialization": {
                                "id": 2,
                                "name": "هندسة معلوماتية"
                            }
                        },
                        "instructor": {
                            "id": 6,
                            "name": "م.حمد أدهم"
                        }
                    },
                    "user": {
                        "id": 5,
                        "name": "samer",
                        "phone": "+963991781414",
                        "sex": "ذكر",
                        "birthDate": "1998-01-01",
                        "avatarUrl": "/uploads/images/user/1760627704766-13804879.jpg",
                        "country": "سوريا",
                        "countryCode": "+963",
                        "role": "STUDENT",
                        "isActive": true
                    }
                },
                "coupon": null
            },
            {
                "id": 12,
                "receiptImageUrl": "/uploads/images/financial/1760865048869-855429494.jpg",
                "amountPaid": {
                    "s": 1,
                    "e": 5,
                    "d": [
                        100000
                    ]
                },
                "notes": null,
                "accessCodeId": 12,
                "couponId": null,
                "createdAt": "2025-10-19",
                "updatedAt": "2025-10-19",
                "accessCode": {
                    "id": 12,
                    "code": "WSTGF5FPGD",
                    "courseLevel": {
                        "id": 3,
                        "name": "المستوى الأول",
                        "course": {
                            "id": 2,
                            "title": "جراحة فك",
                            "specialization": {
                                "id": 1,
                                "name": "طب أسنان"
                            }
                        },
                        "instructor": {
                            "id": 1,
                            "name": "د. محمد أحمد"
                        }
                    },
                    "user": {
                        "id": 15,
                        "name": "tarek",
                        "phone": "+963949248786",
                        "sex": "ذكر",
                        "birthDate": "2009-01-14",
                        "avatarUrl": "/uploads/avatars/1760446394006-602177130.jpg",
                        "country": "سوريا",
                        "countryCode": "+963",
                        "role": "STUDENT",
                        "isActive": true
                    }
                },
                "coupon": null
            },
            {
                "id": 11,
                "receiptImageUrl": "/uploads/images/financial/1760796716112-1053452.png",
                "amountPaid": {
                    "s": 1,
                    "e": 4,
                    "d": [
                        50000
                    ]
                },
                "notes": "rr",
                "accessCodeId": 11,
                "couponId": 3,
                "createdAt": "2025-10-18",
                "updatedAt": "2025-10-18",
                "accessCode": {
                    "id": 11,
                    "code": "RNZ8TBYF6X",
                    "courseLevel": {
                        "id": 2,
                        "name": "المستوى الثاني",
                        "course": {
                            "id": 1,
                            "title": "مداواة لبية",
                            "specialization": {
                                "id": 1,
                                "name": "طب أسنان"
                            }
                        },
                        "instructor": {
                            "id": 1,
                            "name": "د. محمد أحمد"
                        }
                    },
                    "user": {
                        "id": 24,
                        "name": "test",
                        "phone": "+963966471410",
                        "sex": "ذكر",
                        "birthDate": "2025-01-01",
                        "avatarUrl": null,
                        "country": "سوريا",
                        "countryCode": "+963",
                        "role": "STUDENT",
                        "isActive": true
                    }
                },
                "coupon": {
                    "id": 3,
                    "code": "55555",
                    "discount": 50,
                    "isPercent": true
                }
            },
            {
                "id": 10,
                "receiptImageUrl": "/uploads/images/financial/1760611428086-430304972.jpg",
                "amountPaid": {
                    "s": 1,
                    "e": 1,
                    "d": [
                        50
                    ]
                },
                "notes": null,
                "accessCodeId": 10,
                "couponId": null,
                "createdAt": "2025-10-16",
                "updatedAt": "2025-10-16",
                "accessCode": {
                    "id": 10,
                    "code": "3ET5HQXFM9",
                    "courseLevel": {
                        "id": 16,
                        "name": "المستوى 1",
                        "course": {
                            "id": 5,
                            "title": "التعلم عن بعد",
                            "specialization": {
                                "id": 2,
                                "name": "هندسة معلوماتية"
                            }
                        },
                        "instructor": {
                            "id": 6,
                            "name": "م.حمد أدهم"
                        }
                    },
                    "user": {
                        "id": 5,
                        "name": "samer",
                        "phone": "+963991781414",
                        "sex": "ذكر",
                        "birthDate": "1998-01-01",
                        "avatarUrl": "/uploads/images/user/1760627704766-13804879.jpg",
                        "country": "سوريا",
                        "countryCode": "+963",
                        "role": "STUDENT",
                        "isActive": true
                    }
                },
                "coupon": null
            },
            {
                "id": 9,
                "receiptImageUrl": "/uploads/images/financial/1760547416249-38295086.jpg",
                "amountPaid": {
                    "s": 1,
                    "e": 1,
                    "d": [
                        25
                    ]
                },
                "notes": null,
                "accessCodeId": 9,
                "couponId": null,
                "createdAt": "2025-10-15",
                "updatedAt": "2025-10-15",
                "accessCode": {
                    "id": 9,
                    "code": "R6FSC3HX22",
                    "courseLevel": {
                        "id": 16,
                        "name": "المستوى 1",
                        "course": {
                            "id": 5,
                            "title": "التعلم عن بعد",
                            "specialization": {
                                "id": 2,
                                "name": "هندسة معلوماتية"
                            }
                        },
                        "instructor": {
                            "id": 6,
                            "name": "م.حمد أدهم"
                        }
                    },
                    "user": {
                        "id": 1,
                        "name": "vvvg",
                        "phone": "+963992271827",
                        "sex": "ذكر",
                        "birthDate": "2025-01-01",
                        "avatarUrl": "/uploads/avatars/1760018661363-690272790.jpg",
                        "country": "سوريا",
                        "countryCode": "+963",
                        "role": "STUDENT",
                        "isActive": true
                    }
                },
                "coupon": null
            },
            {
                "id": 8,
                "receiptImageUrl": "/uploads/images/financial/1760540226299-688598907.png",
                "amountPaid": {
                    "s": 1,
                    "e": 1,
                    "d": [
                        20
                    ]
                },
                "notes": null,
                "accessCodeId": 8,
                "couponId": null,
                "createdAt": "2025-10-15",
                "updatedAt": "2025-10-15",
                "accessCode": {
                    "id": 8,
                    "code": "MFBW8TPS56",
                    "courseLevel": {
                        "id": 17,
                        "name": "المستوى 2",
                        "course": {
                            "id": 5,
                            "title": "التعلم عن بعد",
                            "specialization": {
                                "id": 2,
                                "name": "هندسة معلوماتية"
                            }
                        },
                        "instructor": {
                            "id": 6,
                            "name": "م.حمد أدهم"
                        }
                    },
                    "user": {
                        "id": 1,
                        "name": "vvvg",
                        "phone": "+963992271827",
                        "sex": "ذكر",
                        "birthDate": "2025-01-01",
                        "avatarUrl": "/uploads/avatars/1760018661363-690272790.jpg",
                        "country": "سوريا",
                        "countryCode": "+963",
                        "role": "STUDENT",
                        "isActive": true
                    }
                },
                "coupon": null
            },
            {
                "id": 7,
                "receiptImageUrl": "/uploads/images/financial/1760530658203-232144108.jpg",
                "amountPaid": {
                    "s": 1,
                    "e": 2,
                    "d": [
                        200
                    ]
                },
                "notes": null,
                "accessCodeId": 7,
                "couponId": null,
                "createdAt": "2025-10-15",
                "updatedAt": "2025-10-15",
                "accessCode": {
                    "id": 7,
                    "code": "HPWMVAW5MY",
                    "courseLevel": {
                        "id": 16,
                        "name": "المستوى 1",
                        "course": {
                            "id": 5,
                            "title": "التعلم عن بعد",
                            "specialization": {
                                "id": 2,
                                "name": "هندسة معلوماتية"
                            }
                        },
                        "instructor": {
                            "id": 6,
                            "name": "م.حمد أدهم"
                        }
                    },
                    "user": {
                        "id": 15,
                        "name": "tarek",
                        "phone": "+963949248786",
                        "sex": "ذكر",
                        "birthDate": "2009-01-14",
                        "avatarUrl": "/uploads/avatars/1760446394006-602177130.jpg",
                        "country": "سوريا",
                        "countryCode": "+963",
                        "role": "STUDENT",
                        "isActive": true
                    }
                },
                "coupon": null
            },
            {
                "id": 6,
                "receiptImageUrl": "/uploads/images/financial/1760528318160-625372200.jpg",
                "amountPaid": {
                    "s": 1,
                    "e": 3,
                    "d": [
                        3000
                    ]
                },
                "notes": null,
                "accessCodeId": 6,
                "couponId": null,
                "createdAt": "2025-10-15",
                "updatedAt": "2025-10-15",
                "accessCode": {
                    "id": 6,
                    "code": "M4LHTMLH3G",
                    "courseLevel": {
                        "id": 1,
                        "name": "المستوى الأول",
                        "course": {
                            "id": 1,
                            "title": "مداواة لبية",
                            "specialization": {
                                "id": 1,
                                "name": "طب أسنان"
                            }
                        },
                        "instructor": {
                            "id": 1,
                            "name": "د. محمد أحمد"
                        }
                    },
                    "user": {
                        "id": 5,
                        "name": "samer",
                        "phone": "+963991781414",
                        "sex": "ذكر",
                        "birthDate": "1998-01-01",
                        "avatarUrl": "/uploads/images/user/1760627704766-13804879.jpg",
                        "country": "سوريا",
                        "countryCode": "+963",
                        "role": "STUDENT",
                        "isActive": true
                    }
                },
                "coupon": null
            },
            {
                "id": 5,
                "receiptImageUrl": "/uploads/images/financial/1760524934531-360170.jpg",
                "amountPaid": {
                    "s": 1,
                    "e": 5,
                    "d": [
                        200000
                    ]
                },
                "notes": null,
                "accessCodeId": 5,
                "couponId": null,
                "createdAt": "2025-10-15",
                "updatedAt": "2025-10-15",
                "accessCode": {
                    "id": 5,
                    "code": "GMVFNAXQSZ",
                    "courseLevel": {
                        "id": 18,
                        "name": "المستوى 3",
                        "course": {
                            "id": 5,
                            "title": "التعلم عن بعد",
                            "specialization": {
                                "id": 2,
                                "name": "هندسة معلوماتية"
                            }
                        },
                        "instructor": {
                            "id": 3,
                            "name": "د. عبد الرحمن محمود"
                        }
                    },
                    "user": {
                        "id": 5,
                        "name": "samer",
                        "phone": "+963991781414",
                        "sex": "ذكر",
                        "birthDate": "1998-01-01",
                        "avatarUrl": "/uploads/images/user/1760627704766-13804879.jpg",
                        "country": "سوريا",
                        "countryCode": "+963",
                        "role": "STUDENT",
                        "isActive": true
                    }
                },
                "coupon": null
            },
            {
                "id": 4,
                "receiptImageUrl": "/uploads/images/financial/1760365911671-251207016.jpg",
                "amountPaid": {
                    "s": 1,
                    "e": 2,
                    "d": [
                        200
                    ]
                },
                "notes": null,
                "accessCodeId": 4,
                "couponId": null,
                "createdAt": "2025-10-13",
                "updatedAt": "2025-10-13",
                "accessCode": {
                    "id": 4,
                    "code": "WP6V5AVG2G",
                    "courseLevel": {
                        "id": 14,
                        "name": "مستوى 1",
                        "course": {
                            "id": 3,
                            "title": "برمجة #C",
                            "specialization": {
                                "id": 2,
                                "name": "هندسة معلوماتية"
                            }
                        },
                        "instructor": {
                            "id": 4,
                            "name": "م. سناء قرقش"
                        }
                    },
                    "user": {
                        "id": 1,
                        "name": "vvvg",
                        "phone": "+963992271827",
                        "sex": "ذكر",
                        "birthDate": "2025-01-01",
                        "avatarUrl": "/uploads/avatars/1760018661363-690272790.jpg",
                        "country": "سوريا",
                        "countryCode": "+963",
                        "role": "STUDENT",
                        "isActive": true
                    }
                },
                "coupon": null
            }
        ],
        "pagination": {
            "page": 1,
            "limit": 10,
            "total": 13,
            "totalPages": 2
        }
    }
}